[
  {
    "id": "firstname",
    "label": "Prénom",
    "default": null,
    "type": "text",
    "defaultStatus": { "required": true, "visible": true },
    "validation": {
      "regExp": null
    },
    "condition": null
  },
  {
    "id": "identifier",
    "label": "Identifiant client",
    "default": null,
    "defaultStatus": { "required": true, "visible": true },
    "type": "text",
    "validation": { "regExp": null },
    "condition": [
      {
        "rule": "['identifierType']['value']=='CIN'",
        "action": "0-9|8",
        "alert": "Ce champ ne doit pas dépasser 8 caractéres "
      },
      {
        "rule": "['identifierType']['value']=='PASSPORT'",
        "action": "0-9A-Z|9",
        "alert": "Ce champ ne doit pas dépasser 9 caractéres "
      },
      {
        "rule": "['identifierType']['value']=='CARTE SEJOUR'",
        "action": "0-9A-Z|10",
        "alert": "Ce champ ne doit pas dépasser 10 caractéres "
      }
    ]
  },
  {
    "id": "mail",
    "label": "Email",
    "default": null,
    "defaultStatus": { "visible": true, "required": false },
    "type": "text",
    "validation": {
      "regExp": null
    },
    "condition": []
  },
  {
    "id": "lastname",
    "label": "Nom",
    "default": null,
    "defaultStatus": { "required": true, "visible": true },
    "type": "text",
    "validation": {
      "regExp": null
    },
    "condition": null
  },
  {
    "id": "Nationalité",
    "label": "Nationnalité",
    "default": null,
    "defaultStatus": { "visible": true, "required": true },
    "type": "text",
    "validation": {
      "regExp": null
    },
    "condition": null
  },

  {
    "id": "missionNum",
    "label": "Num ordre de mission",
    "default": null,
    "defaultStatus": { "required": true, "visible": true },
    "type": "text",
    "validation": {
      "regExp": "0-9|12",
      "alert": "Ce champ ne doit pas dépasser 12 caractéres "
    },
    "condition": null
  },

  {
    "id": "identifierType",
    "label": "Type Identifiant",
    "default": "Choisissez un type d'identifiant",
    "defaultStatus": { "required": true, "visible": true },
    "type": "select",
    "option": ["CIN", "PASSPORT", "CARTE SEJOUR"],
    "validation": { "regExp": null },
    "condition": null
  },

  {
    "id": "phone",
    "label": "Téléphone",
    "default": null,
    "defaultStatus": { "visible": true, "required": false },
    "type": "number",
    "validation": { "regExp": null },
    "condition": null
  },
  {
    "id": "datemissionNum",
    "label": "Date ordre de mission",
    "default": null,
    "defaultStatus": { "required": true, "visible": true },
    "type": "date",
    "validation": {
      "regExp": null
    },
    "condition": null
  }

]
